#nome;#nomeRicercatore;#descrizione
Alta montagna;admin;Per alta montagna si intende di solito la parte della montagna che si eleva sopra i 1500 metri di altitudine.
Bassa montagna;admin;Con la terminologia bassa montagna in Italia generalmente si intende la parte di montagna compresa tra i 500 e i 1500 metri.
Palude;admin;Una palude è un terreno coperto d'acqua stagnante, caratterizzato dallo sviluppo di una particolare vegetazione e fauna che si è adattata all'elevata umidità ambientale e all'imbibizione dei terreni.
Laguna;admin;Una laguna (dal latino lacuna, spazio vuoto) è un bacino costiero separato dal mare (o dall'oceano) da un cordone litoraneo (sia esso tombolo o lido) e caratterizzato da acqua salmastra, alternanza delle maree e formazione di barene permanenti e semipermanenti.
Barena;admin;Le barene (dal vocabolo veneto baro che indica un cespuglio o un ciuffo d'erba) sono terreni di forma tabulare tipici delle lagune, periodicamente sommersi dalle maree.
Tundra;admin;La tundra è un bioma (o vasta formazione vegetale) proprio delle regioni subpolari e occupa zone dell'emisfero dove la temperatura media annuale è inferiore allo zero. Il suo limite settentrionale sono i ghiacci polari perenni (banchisa polare e calotte glaciali), mentre a sud essa si arresta alle prime formazioni forestali della taiga (foresta boreale).
Taiga ;admin;La taiga (dal russo тайга, tajgà, termine di probabile origine altaica[1]) o foresta di conifere è uno dei principali biomi terrestri, formato da foreste di conifere che ricoprono quasi totalmente le regioni sub-artiche boreali dell'Eurasia e dell'America (e per questo detta anche foresta boreale), costituendo un terzo della massa forestale mondiale.
Ecosistemi mediterranei;admin;Gli ecosistemi mediterranei sono riconducibili ai biomi di alcune regioni della fascia temperata calda il cui clima è marcatamente condizionato dall'influenza dell'oceano.
Prateria;admin;La prateria è un'area di terra che fa da contorno a deserti, steppe o a bassi rilievi topografici caratterizzata da una vegetazione composta prevalentemente da piante basse (soprattutto graminacee) ed erbe più o meno alte a seconda delle precipitazioni annue.
Savana;admin;La savana è un bioma terrestre soprattutto subtropicale e tropicale, caratterizzato da una vegetazione a prevalenza erbosa, con arbusti e alberi abbastanza distanziati da non dar luogo a una volta chiusa.
Deserto;admin;In geografi, il deserto è definito come un'area della superficie terrestre, quasi o del tutto disabitata, di alta pressione atmosferica da cui le masse d'aria si allontanano sospinte dai venti nella quale le precipitazioni difficilmente superano i 50 millimetri l'anno e il terreno è prevalentemente arido, con scarsa o nulla vegetazione.
Foresta pluviale tropicale;admin;Le foreste pluviali tropicali sono un tipo di foresta pluviale localizzate nella fascia equatoriale della Terra. Sono comuni in: Asia, Australia, Africa, Sud America, America Centrale, Messico meridionale e in numerose isole del Pacifico.
Bosco;admin;Il bosco o selva è un'ampia superficie, con un'estensione minima di 2000 metri quadrati ed una larghezza media minima di 20 metri di terreno coperto da essenze sia arboree che arbustive.
Acqua dolce;admin;Il termine acqua dolce geograficamente indica genericamente ogni tipo di corso d'acqua interno, derivato più o meno direttamente dallo scioglimento dei ghiacciai e/o dall'acqua piovana.
Oceano ;admin;Con il termine oceano si intendono le più vaste distese d'acqua salata presenti sulla superficie terrestre. Si distinguono dai mari per le dimensioni, i mari sono infatti insenature marginali degli oceani, e sono generalmente diversi per caratteristiche geologiche dei fondali.
Steppa;admin;"La steppa (che significa ""pianura secca"") è un bioma terrestre caratteristico delle regioni a clima continentale con inverni freddi ed estati calde e moderatamente piovose. La vegetazione è costituita da una prateria composta da erbe (per lo più graminacee) e arbusti", gli alberi sono pressoché assenti, a eccezione di zone più umide in prossimità di fiumi e laghi.
Antartide;admin;L'Antartide è il continente, situato nell'emisfero australe della Terra, circostante il Polo sud e opposto all'Artide (il quarto continente più vasto della Terra dopo Asia, Africa e Americhe con circa 14 milioni di km²).