#nomeUtente;#codice;#nomeHabitat;#nomeSpecie;#latitudine;#longitudine;#foto;#date
admin;1;Alta montagna;Ovis_musimon;46.25901489301103;11.811432140717049;ytewvd;2019-01-11
admin;2;Alta montagna;Ovis_musimon;46.26870056952796;11.89066159501225;dshjvcw;2019-01-15
admin;3;Alta montagna;Ovis_musimon;46.268937900223015;11.875555393840376;ucdgw;2019-01-17
admin;4;Alta montagna;Ovis_musimon;46.34103879353068;11.87246548905522;cdhgvc;2019-01-21
admin;5;Alta montagna;Ovis_musimon;46.35217749560;11.939413426066;gfcsayt;2019-01-25
admin;6;Bassa montagna;Canis_lupus;42.45183467;13.47198486;yufdwdw;2019-01-25
admin;7;Bassa montagna;Canis_lupus;42.22241578;13.48846436;yufdwdw;2019-02-03
admin;8;Bassa montagna;Canis_lupus;41.91862887;13.22479248;yufdwdw;2019-02-07
admin;9;Bassa montagna;Canis_lupus;42.15729555;13.55163574;yufdwdw;2019-02-25
admin;10;Bassa montagna;Canis_lupus;42.56521874;13.35388184;yufdwdw;2019-02-27
admin;10;Bassa montagna;Canis_lupus;42.56521874;13.35388184;yufdwdw;2019-02-27
admin;11;Alta montagna;Pinus_mugo;39.35129036;46.1315918;uffsfsv;2019-09-08
admin;12;Alta montagna;Pinus_mugo;39.11727569;46.37329102;uffsfsv;2019-09-08
admin;13;Alta montagna;Pinus_mugo;38.95940879;46.88415527;uffsfsv;2019-09-08
admin;14;Alta montagna;Pinus_mugo;38.98076277;46.47216797;uffsfsv;2019-09-08
admin;15;Alta montagna;Pinus_mugo;38.878205;46.95556641;uffsfsv;2019-09-08
admin;16;Foresta pluviale tropicale;Panthera_tigris;26.74561038;76.81640625;uffsfsv;2019-09-01
admin;17;Foresta pluviale tropicale;Panthera_tigris;24.68695241;75.41015625;uffsfsv;2019-09-09
admin;18;Foresta pluviale tropicale;Panthera_tigris;24.68695241;80.77148438;uffsfsv;2019-09-23
admin;19;Foresta pluviale tropicale;Panthera_tigris;25.56226501;73.828125;uffsfsv;2019-09-25
admin;20;Foresta pluviale tropicale;Panthera_tigris;23.8858377;75.9375;uffsfsv;2019-09-30
admin;21;Taiga;Alces_Alces;69.34933864;26.89453125;dyguflgw;2018-07-01
admin;22;Taiga;Alces_Alces;65.58572002;41.66015625;dyguflgw;2018-08-01
admin;23;Taiga;Alces_Alces;67.27204267;58.79882813;dyguflgw;2018-08-11
admin;24;Taiga;Alces_Alces;64.12978368;12.91992188;dyguflgw;2018-08-17
admin;25;Taiga;Alces_Alces;68.43151285;44.296875;dyguflgw;2018-08-29
admin;26;Laguna;Larus_michahellis;45.45531426;12.33283997;jglyfdud;2019-05-08
admin;27;Laguna;Larus_michahellis;45.44062178;12.35206604;fewfvxew;2019-06-12
admin;28;Laguna;Larus_michahellis;45.4801142;12.41386414:qqwotot;2019-07-01
admin;29;Laguna;Larus_michahellis;45.44062178;12.35206604;fewfvxew;2019-06-12
admin;30;Laguna;Larus_michahellis;45.47722544;12.31018066:qqwotot;2019-07-01
admin;31;Svana;Acinonyx_jubatus;14.00869637;21.09375;ycdwccg;2019-07-01
admin;32;Svana;Acinonyx_jubatus;15.96132908;15.55664063;ycdwccg;2019-07-21
admin;33;Svana;Acinonyx_jubatus;10.57422208;16.96289063;ycdwccg;2019-07-04
admin;34;Svana;Acinonyx_jubatus;11.60919341;23.73046875;ycdwccg;2019-07-10
admin;35;Svana;Acinonyx_jubatus;6.66460756;20.47851563;ycdwccg;2019-07-02
admin;36;Ecosistemi mediterranei;Olea_europea;39.57182224;21.62109375;gyfwigfw;2019-07-02
admin;37;Ecosistemi mediterranei;Olea_europea;38.13455658;23.46679688;gyfwigfw;2019-07-04
admin;38;Ecosistemi mediterranei;Olea_europea;38.61687046;16.5234375;gyfwigfw;2019-07-12
admin;39;Ecosistemi mediterranei;Olea_europea;37.9268676;27.33398438;gyfwigfw;2019-07-14
admin;40;Ecosistemi mediterranei;Olea_europea;39.63953756;8.7890625;gyfwigfw;2019-07-18
admin;41;Taiga;Abies_alba;66.79190947;152.2265625;uvcdcccd;2018-03-31
admin;42;Taiga;Abies_alba;67.74275907;159.08203125;uvcdcccd;2018-03-31
admin;43;Taiga;Abies_alba;65.87472467;133.2421875;uvcdcccd;2018-03-31
admin;44;Taiga;Abies_alba;65.80277639;140.625;uvcdcccd;2018-03-31
admin;45;Taiga;Abies_alba;65.07213009;158.90625;uvcdcccd;2018-03-31
admin;46;Bosco;Ursus_arctos;57.61010702;-117.59765625;egwdwyu;2017-06-12
admin;47;Bosco;Ursus_arctos;55.67758441;-115.59765625;egwdwyu;2017-06-12
admin;48;Bosco;Ursus_arctos;55.87531084;-116.59765625;egwdwyu;2017-06-12
admin;49;Bosco;Ursus_arctos;55.27911529;-130.59765625;egwdwyu;2017-06-12
admin;50;Bosco;Ursus_arctos;58.61010702;-122.59765625;egwdwyu;2017-06-12
admin;51;Antartide;Aptenodytes_forsteri;-75.84516854;-21.4453125;dcddywgc;2018-01-02
admin;52;Antartide;Aptenodytes_forsteri;-71.63599288;-10.546875;dcddywgc;2018-01-02
admin;53;Antartide;Aptenodytes_forsteri;-70.31873848;1.58203125;dcddywgc;2018-01-02
admin;54;Antartide;Aptenodytes_forsteri;-67.6092206;-62.05078125;dcddywgc;2018-01-02
admin;55;Antartide;Aptenodytes_forsteri;-74.77584301;-62.40234375;dcddywgc;2018-01-02
