#nomeLatino;#altezza;#diametro
Pinus_sylvestris;;
Pinus_pinaster;;
Fagus_sylvatica;;
Abies_beshanzuensis;;
Balsaminaceae;;
Picea_neoveitchii;;
Matricaria_chamomillaL.;;
Fagales;;
Hedera_helix;;
Olea_europea;;
Ficus_carica;;
Prunus_avian;;
Quercus;admin;;
Castanea;admin;;
Laurus_nobilis;;
Rosmarinus_Schleid;;
Tulipa;;
Pinus_mugo;;
Abies_alba;;